{
    "type": [
        "object",
        "null"
    ],
    "properties": {
        "COMP_ORDER_ITEM_ID": {
            "type": [
                "number",
                "null"
            ]
        },
        "VERSION": {
            "type": [
                "number",
                "null"
            ]
        },
        "IS_ACTIVE": {
            "type": [
                "string",
                "null"
            ]
        },
        "ITEM_CODE": {
            "type": [
                "string",
                "null"
            ]
        },
        "LINE_NUMBER": {
            "type": [
                "number",
                "null"
            ]
        },
        "AMOUNT": {
            "type": [
                "number",
                "null"
            ]
        },
        "AMOUNT_UNIT_TYPE_ID": {
            "type": [
                "number",
                "null"
            ]
        },
        "AMOUNT_PCT": {
            "type": [
                "number",
                "null"
            ]
        },
        "INCENTIVE_DATE": {
            "type": [
                "string",
                "null"
            ]
        },
        "PERIOD_ID": {
            "type": [
                "number",
                "null"
            ]
        },
        "ORDER_DATE": {
            "type": [
                "string",
                "null"
            ]
        },
        "SOURCE_ID": {
            "type": [
                "number",
                "null"
            ]
        },
        "ORDER_TYPE_ID": {
            "type": [
                "number",
                "null"
            ]
        },
        "IS_PROCESSED": {
            "type": [
                "string",
                "null"
            ]
        },
        "DISCOUNT": {
            "type": [
                "number",
                "null"
            ]
        },
        "QUANTITY": {
            "type": [
                "number",
                "null"
            ]
        },
        "PRODUCT_ID": {
            "type": [
                "number",
                "null"
            ]
        },
        "PRODUCT_NAME": {
            "type": [
                "string",
                "null"
            ]
        },
        "CUSTOMER_ID": {
            "type": [
                "number",
                "null"
            ]
        },
        "CUSTOMER_NAME": {
            "type": [
                "string",
                "null"
            ]
        },
        "GEOGRAPHY_ID": {
            "type": [
                "number",
                "null"
            ]
        },
        "GEOGRAPHY_NAME": {
            "type": [
                "string",
                "null"
            ]
        },
        "UPLOAD_ID": {
            "type": [
                "number",
                "null"
            ]
        },
        "BATCH_NUMBER": {
            "type": [
                "number",
                "null"
            ]
        },
        "BATCH_ID": {
            "type": [
                "number",
                "null"
            ]
        },
        "BATCH_NAME": {
            "type": [
                "string",
                "null"
            ]
        },
        "RELATED_ORDER_CODE": {
            "type": [
                "string",
                "null"
            ]
        },
        "RELATED_ITEM_CODE": {
            "type": [
                "string",
                "null"
            ]
        },
        "RELATED_ITEM_ID": {
            "type": [
                "number",
                "null"
            ]
        },
        "ORDER_CODE": {
            "type": [
                "string",
                "null"
            ]
        },
        "DESCR": {
            "type": [
                "string",
                "null"
            ]
        },
        "ITEM_STATUS": {
            "type": [
                "string",
                "null"
            ]
        },
        "STATUS_DATE": {
            "type": [
                "string",
                "null"
            ]
        },
        "SPLT_AMT_PCT_TOTAL": {
            "type": [
                "number",
                "null"
            ]
        },
        "Invoice_Date": {
            "type": [
                "string",
                "null"
            ]
        },
        "Subscription_Start_Date": {
            "type": [
                "string",
                "null"
            ]
        },
        "Subscription_End_Date": {
            "type": [
                "string",
                "null"
            ]
        },
        "Stage": {
            "type": [
                "string",
                "null"
            ]
        },
        "Opportunity_Name": {
            "type": [
                "string",
                "null"
            ]
        },
        "Invoice_Entity": {
            "type": [
                "string",
                "null"
            ]
        },
        "Invoice_Number": {
            "type": [
                "string",
                "null"
            ]
        },
        "Prevent_Rolling": {
            "type": [
                "string",
                "null"
            ]
        },
        "Partner_Deal_Type": {
            "type": [
                "string",
                "null"
            ]
        },
        "Partner_Engagement": {
            "type": [
                "string",
                "null"
            ]
        },
        "Account_Territory": {
            "type": [
                "string",
                "null"
            ]
        },
        "Product_Category": {
            "type": [
                "string",
                "null"
            ]
        },
        "SDR_Assigned_Role": {
            "type": [
                "string",
                "null"
            ]
        },
        "Initial_Source": {
            "type": [
                "string",
                "null"
            ]
        },
        "Order_Subtype": {
            "type": [
                "string",
                "null"
            ]
        },
        "Region": {
            "type": [
                "string",
                "null"
            ]
        },
        "User_Segment": {
            "type": [
                "string",
                "null"
            ]
        },
        "Account_Owner_Team": {
            "type": [
                "string",
                "null"
            ]
        },
        "SA_Team": {
            "type": [
                "string",
                "null"
            ]
        },
        "Initiative": {
            "type": [
                "string",
                "null"
            ]
        },
        "Outreach_Meeting_Type": {
            "type": [
                "string",
                "null"
            ]
        },
        "Event_Disposition": {
            "type": [
                "string",
                "null"
            ]
        },
        "Subject": {
            "type": [
                "string",
                "null"
            ]
        },
        "IQM_Submitted_by_Role": {
            "type": [
                "string",
                "null"
            ]
        },
        "Created_By_Team": {
            "type": [
                "string",
                "null"
            ]
        },
        "New_Logo_Target_Account": {
            "type": [
                "string",
                "null"
            ]
        },
        "Deal_Path": {
            "type": [
                "string",
                "null"
            ]
        },
        "DR_Partner": {
            "type": [
                "string",
                "null"
            ]
        },
        "BHR_EEID": {
            "type": [
                "string",
                "null"
            ]
        },
        "SQS": {
            "type": [
                "string",
                "null"
            ]
        },
        "Resale_Partner": {
            "type": [
                "string",
                "null"
            ]
        },
        "Type": {
            "type": [
                "string",
                "null"
            ]
        },
        "Type_Name": {
            "type": [
                "string",
                "null"
            ]
        },
        "Is_SAO": {
            "type": [
                "string",
                "null"
            ]
        },
        "Web_Portal_Purchase": {
            "type": [
                "string",
                "null"
            ]
        },
        "Stamped_Opp_Owner_User_Region": {
            "type": [
                "string",
                "null"
            ]
        },
        "Opportunity_Category": {
            "type": [
                "string",
                "null"
            ]
        },
        "Split_Partner_Type": {
            "type": [
                "string",
                "null"
            ]
        },
        "Partner_Sourced_Employee_Id": {
            "type": [
                "string",
                "null"
            ]
        },
        "Partner_CoSell_Employee_Id": {
            "type": [
                "string",
                "null"
            ]
        },
        "Invoice_Amount": {
            "type": [
                "number",
                "null"
            ]
        },
        "Channel_Neutral_Amount": {
            "type": [
                "number",
                "null"
            ]
        },
        "ARR_Net_Amount": {
            "type": [
                "number",
                "null"
            ]
        },
        "ARR_Growth_Amount": {
            "type": [
                "number",
                "null"
            ]
        },
        "True_Up_Amount": {
            "type": [
                "number",
                "null"
            ]
        },
        "ARR_Gross_Amount": {
            "type": [
                "number",
                "null"
            ]
        },
        "PIO_Amount": {
            "type": [
                "number",
                "null"
            ]
        },
        "ARR_Y2Plus_Amount": {
            "type": [
                "number",
                "null"
            ]
        },
        "Professional_Services_Amount": {
            "type": [
                "number",
                "null"
            ]
        },
        "Opportunity_Term": {
            "type": [
                "number",
                "null"
            ]
        },
        "Partner_Discount": {
            "type": [
                "number",
                "null"
            ]
        },
        "Calculated_Discount": {
            "type": [
                "number",
                "null"
            ]
        },
        "Channel_Neutral_Y2Plus_Amount": {
            "type": [
                "number",
                "null"
            ]
        },
        "Recurring_Amount": {
            "type": [
                "number",
                "null"
            ]
        },
        "Non_Recurring_Amount": {
            "type": [
                "number",
                "null"
            ]
        },
        "Commission_Adj": {
            "type": [
                "number",
                "null"
            ]
        },
        "Stub_IACV": {
            "type": [
                "number",
                "null"
            ]
        },
        "Guarantee_Adj": {
            "type": [
                "number",
                "null"
            ]
        },
        "ARR_Basis": {
            "type": [
                "number",
                "null"
            ]
        },
        "Won_ARR_Basis": {
            "type": [
                "number",
                "null"
            ]
        },
        "LAM_Dev_Count": {
            "type": [
                "number",
                "null"
            ]
        },
        "ARR_Basis_Clari": {
            "type": [
                "number",
                "null"
            ]
        },
        "Channel_Split_Percentage": {
            "type": [
                "number",
                "null"
            ]
        },
        "Invoice_Amount_UnitTypeId": {
            "type": [
                "number",
                "null"
            ]
        },
        "Channel_Neutral_Amount_UnitTypeId": {
            "type": [
                "number",
                "null"
            ]
        },
        "ARR_Net_Amount_UnitTypeId": {
            "type": [
                "number",
                "null"
            ]
        },
        "ARR_Growth_Amount_UnitTypeId": {
            "type": [
                "number",
                "null"
            ]
        },
        "True_Up_Amount_UnitTypeId": {
            "type": [
                "number",
                "null"
            ]
        },
        "ARR_Gross_Amount_UnitTypeId": {
            "type": [
                "number",
                "null"
            ]
        },
        "PIO_Amount_UnitTypeId": {
            "type": [
                "number",
                "null"
            ]
        },
        "ARR_Y2Plus_Amount_UnitTypeId": {
            "type": [
                "number",
                "null"
            ]
        },
        "Professional_Services_Amount_UnitTypeId": {
            "type": [
                "number",
                "null"
            ]
        },
        "Opportunity_Term_UnitTypeId": {
            "type": [
                "number",
                "null"
            ]
        },
        "Partner_Discount_UnitTypeId": {
            "type": [
                "number",
                "null"
            ]
        },
        "Calculated_Discount_UnitTypeId": {
            "type": [
                "number",
                "null"
            ]
        },
        "Channel_Neutral_Y2Plus_Amount_UnitTypeId": {
            "type": [
                "number",
                "null"
            ]
        },
        "Recurring_Amount_UnitTypeId": {
            "type": [
                "number",
                "null"
            ]
        },
        "Non_Recurring_Amount_UnitTypeId": {
            "type": [
                "number",
                "null"
            ]
        },
        "Commission_Adj_UnitTypeId": {
            "type": [
                "number",
                "null"
            ]
        },
        "Stub_IACV_UnitTypeId": {
            "type": [
                "number",
                "null"
            ]
        },
        "Guarantee_Adj_UnitTypeId": {
            "type": [
                "number",
                "null"
            ]
        },
        "ARR_Basis_UnitTypeId": {
            "type": [
                "number",
                "null"
            ]
        },
        "Won_ARR_Basis_UnitTypeId": {
            "type": [
                "number",
                "null"
            ]
        },
        "LAM_Dev_Count_UnitTypeId": {
            "type": [
                "number",
                "null"
            ]
        },
        "ARR_Basis_Clari_UnitTypeId": {
            "type": [
                "number",
                "null"
            ]
        },
        "Channel_Split_Percentage_UnitTypeId": {
            "type": [
                "number",
                "null"
            ]
        },
        "CREATED_DATE": {
            "type": [
                "string",
                "null"
            ]
        },
        "CREATED_BY_ID": {
            "type": [
                "number",
                "null"
            ]
        },
        "CREATED_BY_NAME": {
            "type": [
                "string",
                "null"
            ]
        },
        "MODIFIED_DATE": {
            "type": [
                "string",
                "null"
            ]
        },
        "MODIFIED_BY_ID": {
            "type": [
                "number",
                "null"
            ]
        },
        "MODIFIED_BY_NAME": {
            "type": [
                "string",
                "null"
            ]
        }
        
    }
}
